EESchema Schematic File Version 4
EELAYER 30 0
EELAYER END
$Descr A4 11693 8268
encoding utf-8
Sheet 1 1
Title ""
Date ""
Rev ""
Comp ""
Comment1 ""
Comment2 ""
Comment3 ""
Comment4 ""
$EndDescr
$Comp
L power:GND #PWR0103
U 1 1 61809325
P 6400 5050
F 0 "#PWR0103" H 6400 4800 50  0001 C CNN
F 1 "GND" H 6405 4877 50  0000 C CNN
F 2 "" H 6400 5050 50  0001 C CNN
F 3 "" H 6400 5050 50  0001 C CNN
	1    6400 5050
	1    0    0    -1  
$EndComp
$Comp
L vfd_clock-rescue:YAAJ_BluePill-YAAJ_BluePill U2
U 1 1 6185E782
P 6500 3850
F 0 "U2" H 6500 3850 50  0000 C CNN
F 1 "YAAJ_BluePill" H 6500 3550 50  0000 C CNN
F 2 "" V 6425 4800 50  0001 C CNN
F 3 "" V 6425 4800 50  0001 C CNN
	1    6500 3850
	1    0    0    -1  
$EndComp
Wire Wire Line
	6400 4950 6400 5050
Wire Wire Line
	6400 4950 6300 4950
Connection ~ 6400 4950
$Comp
L Connector:Conn_01x05_Male J2
U 1 1 6187D5FC
P 4300 3450
F 0 "J2" H 4272 3382 50  0000 R CNN
F 1 "DISPLAY" H 4272 3473 50  0000 R CNN
F 2 "Connector_JST:JST_PH_B5B-PH-K_1x05_P2.00mm_Vertical" H 4300 3450 50  0001 C CNN
F 3 "~" H 4300 3450 50  0001 C CNN
	1    4300 3450
	1    0    0    -1  
$EndComp
$Comp
L power:VCC #PWR04
U 1 1 6188E31B
P 4500 3250
F 0 "#PWR04" H 4500 3100 50  0001 C CNN
F 1 "VCC" H 4515 3423 50  0000 C CNN
F 2 "" H 4500 3250 50  0001 C CNN
F 3 "" H 4500 3250 50  0001 C CNN
	1    4500 3250
	1    0    0    -1  
$EndComp
$Comp
L power:GND #PWR05
U 1 1 6188E8DD
P 4500 3650
F 0 "#PWR05" H 4500 3400 50  0001 C CNN
F 1 "GND" V 4505 3522 50  0000 R CNN
F 2 "" H 4500 3650 50  0001 C CNN
F 3 "" H 4500 3650 50  0001 C CNN
	1    4500 3650
	0    -1   -1   0   
$EndComp
$Comp
L Device:Buzzer BZ1
U 1 1 6188FB8B
P 4500 4950
F 0 "BZ1" H 4652 4979 50  0000 L CNN
F 1 "Buzzer" H 4652 4888 50  0000 L CNN
F 2 "Buzzer_Beeper:MagneticBuzzer_CUI_CST-931RP-A" V 4475 5050 50  0001 C CNN
F 3 "~" V 4475 5050 50  0001 C CNN
	1    4500 4950
	-1   0    0    1   
$EndComp
$Comp
L power:VCC #PWR0104
U 1 1 6180B222
P 6400 2750
F 0 "#PWR0104" H 6400 2600 50  0001 C CNN
F 1 "VCC" H 6415 2923 50  0000 C CNN
F 2 "" H 6400 2750 50  0001 C CNN
F 3 "" H 6400 2750 50  0001 C CNN
	1    6400 2750
	1    0    0    -1  
$EndComp
$Comp
L power:GND #PWR07
U 1 1 618DA3F4
P 4600 5050
F 0 "#PWR07" H 4600 4800 50  0001 C CNN
F 1 "GND" H 4605 4877 50  0000 C CNN
F 2 "" H 4600 5050 50  0001 C CNN
F 3 "" H 4600 5050 50  0001 C CNN
	1    4600 5050
	1    0    0    -1  
$EndComp
$Comp
L Device:R_Small R4
U 1 1 618FA276
P 3400 3700
F 0 "R4" H 3341 3654 50  0000 R CNN
F 1 "3k3" H 3341 3745 50  0000 R CNN
F 2 "Resistor_THT:R_Axial_DIN0207_L6.3mm_D2.5mm_P10.16mm_Horizontal" H 3400 3700 50  0001 C CNN
F 3 "~" H 3400 3700 50  0001 C CNN
	1    3400 3700
	-1   0    0    1   
$EndComp
$Comp
L Device:R_Small R3
U 1 1 618FAF52
P 3050 3700
F 0 "R3" H 2991 3654 50  0000 R CNN
F 1 "3k3" H 2991 3745 50  0000 R CNN
F 2 "Resistor_THT:R_Axial_DIN0207_L6.3mm_D2.5mm_P10.16mm_Horizontal" H 3050 3700 50  0001 C CNN
F 3 "~" H 3050 3700 50  0001 C CNN
	1    3050 3700
	-1   0    0    1   
$EndComp
$Comp
L Device:R_Small R2
U 1 1 618FB9C4
P 2700 3700
F 0 "R2" H 2641 3654 50  0000 R CNN
F 1 "3k3" H 2641 3745 50  0000 R CNN
F 2 "Resistor_THT:R_Axial_DIN0207_L6.3mm_D2.5mm_P10.16mm_Horizontal" H 2700 3700 50  0001 C CNN
F 3 "~" H 2700 3700 50  0001 C CNN
	1    2700 3700
	-1   0    0    1   
$EndComp
Wire Wire Line
	2700 3400 2700 3600
Wire Wire Line
	3050 3400 3050 3600
Wire Wire Line
	3050 3400 2700 3400
Wire Wire Line
	3400 3400 3400 3600
Connection ~ 3050 3400
Wire Wire Line
	3400 3400 3050 3400
Connection ~ 2700 3400
Wire Wire Line
	3400 3800 3400 3950
Connection ~ 3400 3950
Wire Wire Line
	3050 3800 3050 4050
Connection ~ 3050 4050
Wire Wire Line
	2700 3800 2700 4150
Connection ~ 2700 4150
Wire Wire Line
	3400 3950 3400 4400
Wire Wire Line
	3050 4400 3050 4050
Wire Wire Line
	2700 4150 2700 4400
$Comp
L power:GND #PWR03
U 1 1 619503A1
P 1900 4800
F 0 "#PWR03" H 1900 4550 50  0001 C CNN
F 1 "GND" H 1905 4627 50  0000 C CNN
F 2 "" H 1900 4800 50  0001 C CNN
F 3 "" H 1900 4800 50  0001 C CNN
	1    1900 4800
	1    0    0    -1  
$EndComp
$Comp
L Device:C_Small C4
U 1 1 61953E43
P 3400 4500
F 0 "C4" H 3492 4546 50  0000 L CNN
F 1 "10u" H 3492 4455 50  0000 L CNN
F 2 "Capacitor_SMD:C_0201_0603Metric_Pad0.64x0.40mm_HandSolder" H 3400 4500 50  0001 C CNN
F 3 "~" H 3400 4500 50  0001 C CNN
	1    3400 4500
	1    0    0    -1  
$EndComp
$Comp
L Device:C_Small C3
U 1 1 619518D6
P 3050 4500
F 0 "C3" H 2958 4454 50  0000 R CNN
F 1 "10u" H 2958 4545 50  0000 R CNN
F 2 "Capacitor_SMD:C_0201_0603Metric_Pad0.64x0.40mm_HandSolder" H 3050 4500 50  0001 C CNN
F 3 "~" H 3050 4500 50  0001 C CNN
	1    3050 4500
	-1   0    0    1   
$EndComp
$Comp
L Device:C_Small C2
U 1 1 6194F75F
P 2700 4500
F 0 "C2" H 2792 4546 50  0000 L CNN
F 1 "10u" H 2792 4455 50  0000 L CNN
F 2 "Capacitor_SMD:C_0201_0603Metric_Pad0.64x0.40mm_HandSolder" H 2700 4500 50  0001 C CNN
F 3 "~" H 2700 4500 50  0001 C CNN
	1    2700 4500
	1    0    0    -1  
$EndComp
Wire Wire Line
	3400 4600 3400 4800
Wire Wire Line
	2700 4600 2700 4800
Connection ~ 2700 4800
Wire Wire Line
	1550 4150 2700 4150
Wire Wire Line
	1550 4050 3050 4050
Wire Wire Line
	3400 3950 1550 3950
$Comp
L power:GND #PWR01
U 1 1 618D371C
P 1550 4450
F 0 "#PWR01" H 1550 4200 50  0001 C CNN
F 1 "GND" H 1555 4277 50  0000 C CNN
F 2 "" H 1550 4450 50  0001 C CNN
F 3 "" H 1550 4450 50  0001 C CNN
	1    1550 4450
	1    0    0    -1  
$EndComp
Wire Wire Line
	4500 3550 5700 3550
Wire Wire Line
	4500 3450 5700 3450
Wire Wire Line
	4500 3350 5700 3350
$Comp
L Device:R_Small R1
U 1 1 61AE3E39
P 2350 3700
F 0 "R1" H 2409 3746 50  0000 L CNN
F 1 "3k3" H 2409 3655 50  0000 L CNN
F 2 "Resistor_THT:R_Axial_DIN0207_L6.3mm_D2.5mm_P10.16mm_Horizontal" H 2350 3700 50  0001 C CNN
F 3 "~" H 2350 3700 50  0001 C CNN
	1    2350 3700
	1    0    0    -1  
$EndComp
Wire Wire Line
	2350 3600 2350 3400
Wire Wire Line
	1900 3400 2000 3400
Connection ~ 2350 3400
Wire Wire Line
	2350 3400 2700 3400
Wire Wire Line
	2350 3800 2350 4250
Connection ~ 2350 4250
Wire Wire Line
	2350 4250 1550 4250
$Comp
L Device:C_Small C1
U 1 1 6185E836
P 2350 4500
F 0 "C1" H 2442 4546 50  0000 L CNN
F 1 "10u" H 2442 4455 50  0000 L CNN
F 2 "Capacitor_SMD:C_0201_0603Metric_Pad0.64x0.40mm_HandSolder" H 2350 4500 50  0001 C CNN
F 3 "~" H 2350 4500 50  0001 C CNN
	1    2350 4500
	1    0    0    -1  
$EndComp
Wire Wire Line
	2350 4250 2350 4400
Wire Wire Line
	2350 4600 2350 4800
Connection ~ 2350 4800
Wire Wire Line
	2350 4800 2700 4800
$Comp
L power:VCC #PWR02
U 1 1 6186A243
P 1900 3400
F 0 "#PWR02" H 1900 3250 50  0001 C CNN
F 1 "VCC" H 1915 3573 50  0000 C CNN
F 2 "" H 1900 3400 50  0001 C CNN
F 3 "" H 1900 3400 50  0001 C CNN
	1    1900 3400
	1    0    0    -1  
$EndComp
Wire Wire Line
	2700 4800 3050 4800
Wire Wire Line
	3050 4800 3400 4800
Connection ~ 3050 4800
Wire Wire Line
	3050 4600 3050 4800
$Comp
L Device:Battery_Cell BT1
U 1 1 61878AD6
P 5600 2500
F 0 "BT1" V 5345 2550 50  0000 C CNN
F 1 "Battery_Cell" V 5436 2550 50  0000 C CNN
F 2 "Connector_JST:JST_PH_B2B-PH-K_1x02_P2.00mm_Vertical" V 5600 2560 50  0001 C CNN
F 3 "~" V 5600 2560 50  0001 C CNN
	1    5600 2500
	0    1    1    0   
$EndComp
Wire Wire Line
	5800 2500 6300 2500
Wire Wire Line
	6300 2500 6300 2750
$Comp
L power:GND #PWR0101
U 1 1 6187A6B9
P 5500 2500
F 0 "#PWR0101" H 5500 2250 50  0001 C CNN
F 1 "GND" H 5505 2327 50  0000 C CNN
F 2 "" H 5500 2500 50  0001 C CNN
F 3 "" H 5500 2500 50  0001 C CNN
	1    5500 2500
	1    0    0    -1  
$EndComp
$Comp
L Connector:Conn_01x06_Male J?
U 1 1 61958AB1
P 1350 4150
F 0 "J?" H 1458 4531 50  0000 C CNN
F 1 "Buttons" H 1200 4150 50  0000 C CNN
F 2 "" H 1350 4150 50  0001 C CNN
F 3 "~" H 1350 4150 50  0001 C CNN
	1    1350 4150
	1    0    0    -1  
$EndComp
Wire Wire Line
	3400 3950 5700 3950
Wire Wire Line
	3050 4050 5700 4050
Wire Wire Line
	2700 4150 5700 4150
Wire Wire Line
	2350 4250 5700 4250
Wire Wire Line
	1550 4350 2000 4350
$Comp
L Device:R_Small R?
U 1 1 61975523
P 2000 3700
F 0 "R?" H 1941 3654 50  0000 R CNN
F 1 "3k3" H 1941 3745 50  0000 R CNN
F 2 "Resistor_THT:R_Axial_DIN0207_L6.3mm_D2.5mm_P10.16mm_Horizontal" H 2000 3700 50  0001 C CNN
F 3 "~" H 2000 3700 50  0001 C CNN
	1    2000 3700
	-1   0    0    1   
$EndComp
$Comp
L Device:C_Small C?
U 1 1 61975FAA
P 2000 4500
F 0 "C?" H 2092 4546 50  0000 L CNN
F 1 "10u" H 2092 4455 50  0000 L CNN
F 2 "Capacitor_SMD:C_0201_0603Metric_Pad0.64x0.40mm_HandSolder" H 2000 4500 50  0001 C CNN
F 3 "~" H 2000 4500 50  0001 C CNN
	1    2000 4500
	1    0    0    -1  
$EndComp
Wire Wire Line
	2000 4400 2000 4350
Connection ~ 2000 4350
Wire Wire Line
	2000 3800 2000 4350
Wire Wire Line
	2000 3600 2000 3400
Connection ~ 2000 3400
Wire Wire Line
	2000 3400 2350 3400
Wire Wire Line
	2000 4600 2000 4800
Wire Wire Line
	1900 4800 2000 4800
Connection ~ 2000 4800
Wire Wire Line
	2000 4800 2350 4800
Text Label 1650 4350 0    50   ~ 0
Dnd
Text Label 1650 4250 0    50   ~ 0
Snooze
Text Label 1650 4150 0    50   ~ 0
Down
Text Label 1650 4050 0    50   ~ 0
Up
Text Label 1650 3950 0    50   ~ 0
Set
Text Label 4950 3550 0    50   ~ 0
TX
Text Label 4950 3450 0    50   ~ 0
BUSY
Text Label 4950 3350 0    50   ~ 0
TEST
Text Label 5200 4550 0    50   ~ 0
Buzzer
Wire Wire Line
	5700 4550 4950 4550
$Comp
L Transistor_BJT:BC547 Q?
U 1 1 619AFCE3
P 4950 4750
F 0 "Q?" V 5185 4750 50  0000 C CNN
F 1 "BC547" V 5276 4750 50  0000 C CNN
F 2 "Package_TO_SOT_THT:TO-92_Inline" H 5150 4675 50  0001 L CIN
F 3 "https://www.onsemi.com/pub/Collateral/BC550-D.pdf" H 4950 4750 50  0001 L CNN
	1    4950 4750
	0    1    1    0   
$EndComp
Wire Wire Line
	2000 4350 5700 4350
Wire Wire Line
	4750 4850 4600 4850
Text GLabel 5150 4850 2    50   Input ~ 0
VCC
Wire Wire Line
	6400 4950 6500 4950
$EndSCHEMATC
